…
``` r
#Construct a dataset that is limited to Excellent responses,and calculate average value
state_response <- brfss_clean%>%
#choose those lines whose response is excellent
  filter(response == "Excellent")%>%
  group_by(year,state,state_county)%>%
#calculate the mean by group
  summarise(average_value = mean(data_value),.groups = "keep")

state_response
```

    ## # A tibble: 2,125 × 4
    ## # Groups:   year, state, state_county [2,125]
    ##     year state state_county                average_value
    ##    <int> <chr> <chr>                               <dbl>
    ##  1  2002 AK    AK - Anchorage Municipality          27.9
    ##  2  2002 AL    AL - Jefferson County                18.5
    ##  3  2002 AR    AR - Pulaski County                  24.1
    ##  4  2002 AZ    AZ - Maricopa County                 21.6
    ##  5  2002 AZ    AZ - Pima County                     26.6
    ##  6  2002 CA    CA - Los Angeles County              22.7
    ##  7  2002 CO    CO - Adams County                    21.2
    ##  8  2002 CO    CO - Arapahoe County                 25.5
    ##  9  2002 CO    CO - Denver County                   22.2
    ## 10  2002 CO    CO - Jefferson County                23.4
    ## # ℹ 2,115 more rows
…
